module github.com/deepfence/SecretScanner

go 1.18

replace github.com/deepfence/agent-plugins-grpc => ./agent-plugins-grpc

require (
	github.com/Jeffail/tunny v0.1.4
	github.com/deepfence/agent-plugins-grpc v0.0.0-00010101000000-000000000000
	github.com/deepfence/vessel v0.7.0
	github.com/fatih/color v1.13.0
	github.com/flier/gohs v1.2.0
	google.golang.org/grpc v1.49.0
	gopkg.in/yaml.v3 v3.0.1
)

require (
	github.com/Microsoft/go-winio v0.5.1 // indirect
	github.com/Microsoft/hcsshim v0.9.4 // indirect
	github.com/containerd/cgroups v1.0.3 // indirect
	github.com/containerd/containerd v1.6.8 // indirect
	github.com/containerd/continuity v0.2.2 // indirect
	github.com/containerd/fifo v1.0.0 // indirect
	github.com/containerd/ttrpc v1.1.0 // indirect
	github.com/containerd/typeurl v1.0.2 // indirect
	github.com/docker/distribution v2.7.1+incompatible // indirect
	github.com/docker/docker v20.10.18+incompatible // indirect
	github.com/docker/go-connections v0.4.0 // indirect
	github.com/docker/go-events v0.0.0-20190806004212-e31b211e4f1c // indirect
	github.com/docker/go-units v0.4.0 // indirect
	github.com/gogo/googleapis v1.4.0 // indirect
	github.com/gogo/protobuf v1.3.2 // indirect
	github.com/golang/groupcache v0.0.0-20210331224755-41bb18bfe9da // indirect
	github.com/golang/protobuf v1.5.2 // indirect
	github.com/google/uuid v1.2.0 // indirect
	github.com/klauspost/compress v1.11.13 // indirect
	github.com/mattn/go-colorable v0.1.9 // indirect
	github.com/mattn/go-isatty v0.0.14 // indirect
	github.com/moby/locker v1.0.1 // indirect
	github.com/moby/sys/mountinfo v0.5.0 // indirect
	github.com/moby/sys/signal v0.6.0 // indirect
	github.com/opencontainers/go-digest v1.0.0 // indirect
	github.com/opencontainers/image-spec v1.0.3-0.20211202183452-c5a74bcca799 // indirect
	github.com/opencontainers/runc v1.1.2 // indirect
	github.com/opencontainers/runtime-spec v1.0.3-0.20210326190908-1c3f411f0417 // indirect
	github.com/opencontainers/selinux v1.10.1 // indirect
	github.com/pkg/errors v0.9.1 // indirect
	github.com/sirupsen/logrus v1.9.0 // indirect
	go.opencensus.io v0.23.0 // indirect
	golang.org/x/net v0.0.0-20220407224826-aac1ed45d8e3 // indirect
	golang.org/x/sync v0.0.0-20210220032951-036812b2e83c // indirect
	golang.org/x/sys v0.0.0-20220715151400-c0bba94af5f8 // indirect
	golang.org/x/text v0.3.7 // indirect
	google.golang.org/genproto v0.0.0-20211208223120-3a66f561d7aa // indirect
	google.golang.org/protobuf v1.27.1 // indirect
)
